INDEX VERSION 1.126+/Users/Debosmit/Documents/workspace_sw/.metadata/.plugins/org.eclipse.jdt.core
372826605.index
4039371887.index
2866552604.index
4234090258.index
3546426181.index
3707301881.index
2596366823.index
547256444.index
1539174850.index
2122836830.index
1186224472.index
1678551828.index
