<?xml version="1.0" encoding="UTF-8"?>
<session version="1.0">
<refactoring accessors="true" comment="Delete element from project &apos;Applet&apos;&#x0A;- Original project: &apos;Applet&apos;&#x0A;- Original element: &apos;image.InvertingProblem.java&apos;" description="Delete element" element1="/src&lt;image{InvertingProblem.java" elements="1" flags="589830" id="org.eclipse.jdt.ui.delete" resources="0" stamp="1373322094126" subPackages="false" version="1.0"/>
</session>